<svg xmlns="http://www.w3.org/2000/svg" width="10.636" height="8.478" viewBox="0 0 10.636 8.478">
  <g id="стрелка" transform="translate(-457.232 -714.06)">
    <path id="Path_56" data-name="Path 56" d="M457.982,718.262h8.254" fill="none" stroke="#a58861" stroke-linecap="round" stroke-width="1.5"/>
    <path id="Path_57" data-name="Path 57" d="M463.94,715.121l3.178,3.178-3.178,3.178" fill="none" stroke="#a58861" stroke-linecap="round" stroke-linejoin="round" stroke-width="1.5"/>
  </g>
</svg>
