<svg xmlns="http://www.w3.org/2000/svg" width="7.449" height="13.898" viewBox="0 0 7.449 13.898">
  <path id="Path_65" data-name="Path 65" d="M4427.9,423l-6.242,6.242,5.461,5.462.78.78" transform="translate(-4421.163 -422.293)" fill="none" stroke="#8c8c8e" stroke-linecap="round" stroke-linejoin="round" stroke-width="1"/>
</svg>
